<svg 
  xmlns="http://www.w3.org/2000/svg" 
  viewBox="0 0 512 512" 
  style="height: 512px; width: 512px;">
    
    <!--dice color-->
    <path 
      class="body"
      d="
      M 484.5 428.02 
      a 56.48 56.48 0 0 1 -56.48 56.48 
      h -344
      a 56.48 56.48 0 0 1 -56.52 -56.48
      v -344
      A 56.48 56.48 0 0 1 83.98 27.5
      h 344
      a 56.48 56.48 0 0 1 56.52 56.48 
      z"
      fill="#888888" 
      fill-opacity="1"/>
    
    <!--Dice Edge -->
    <path 
      class="edge"
      d="
      M 484.5 428.02
      a 56.48 56.48 0 0 1-56.48 56.48
      h -344
      a 56.48 56.48 0 0 1-56.52-56.48
      v -344
      A 56.48 56.48 0 0 1 83.98 27.5 
      h 344
      a 56.48 56.48 0 0 1 56.52 56.48
      z 
      m -20 -344
      a 36.48 36.48 0 0 0 -36.48 -36.52
      h -344
      A 36.48 36.48 0 0 0 47.5 83.98
      v 344
      a 36.48 36.48 0 0 0 36.48 36.52
      h 344 
      a 36.48 36.48 0 0 0 36.52 -36.48
      z"
      fill="#111111" 
      fill-opacity="1"/>
      
    <!--Cirle -->
    <path 
      class="dots"
      d="
      M 302.87 255.5 
      a 47.37 47.37 0 1 1 -47.37 -47.37 
      a 47.37 47.37 0 0 1 47.37 47.37 
      z 
      M 128.5 81.18 
      a 47.37 47.37 0 1 0 47.41 47.32 
      a 47.37 47.37 0 0 0 -47.41 -47.32 
      z
      m 253.91 0 
      a 47.37 47.37 0 1 0 47.41 47.32 
      a 47.37 47.37 0 0 0 -47.32 -47.32 
      z
      M 128.5 335.09 
      a 47.37 47.37 0 1 0 47.41 47.41 
      a 47.37 47.37 0 0 0 -47.41 -47.41 
      z
      m 253.91 0 
      a 47.37 47.37 0 1 0 47.41 47.41 
      a 47.37 47.37 0 0 0 -47.32 -47.41 
      z" 
      fill="#111111" 
      fill-opacity="1"/>
</svg>
